{
  "app_list": [
    "UpgradeAll",
    "阅读2.0",
    "阅读3.0",
    "Tachiyomi",
    "Cimoc",
    "Cimoc_Haleydu",
    "Meow",
    "MiPushFramework",
    "uperf",
    "扫一扫",
    "edXposedManager",
    "QNotified",
    "[Magisk_Module]Fingerprint-pay-alipay",
    "[Magisk_Module]Fingerprint-pay-qq",
    "[Magisk_Module]Fingerprint-pay-taobao",
    "[Magisk_Module]Fingerprint-pay-wechat",
    "[Magisk_Module]Riru Core",
    "[Magisk_Module]QTI-MEM-OPT",
    "Via",
    "Termux",
    "AlpineTerm",
    "Shadowsocks",
    "ShadowsocksR-by bige",
    "V2rayNG",
    "TrebleShot",
    "厚墨",
    "LinuxDeploy",
    "坚果云",
    "Shizuku",
    "QQ浏览器",
    "z直播-official",
    "PanDownload",
    "JBusDriver",
    "草榴社区",
    "Zoysii",
    "OwnCloud",
    "Aurora Store",
    "F-droid-official",
    "Shadowsocksrb",
    "JavRocket",
    "微漫",
    "JAViewer",
    "Nekogram",
    "qksms",
    "微聚",
    "Telegram-FOSS",
    "Feeder",
    "几何天气",
    "Kiwi Browser",
    "Mysplash",
    "NoWakeLock"
  ],
  "hub_list": [
    "GitHub",
    "zlive_official",
    "CoolApk",
    "LiteDownloader",
    "Sjly",
    "F-droid"
  ]
}
